^C:\PROJECTS\FINDANDUPDATEFILE\FINDANDUPDATEFILE\STDAFX.CPP
/c /ZI /nologo /W3 /WX- /sdl /Od /D _DEBUG /D _CONSOLE /D _UNICODE /D UNICODE /D _CRT_SECURE_NO_WARNINGS /Gm /EHsc /RTC1 /MDd /GS /fp:precise /Zc:wchar_t /Zc:forScope /Zc:inline /Yc"stdafx.h" /Fp"X64\DEBUG\FINDREPLACE.PCH" /Fo"X64\DEBUG\\" /Fd"X64\DEBUG\VC140.PDB" /Gd /TP C:\PROJECTS\FINDANDUPDATEFILE\FINDANDUPDATEFILE\STDAFX.CPP
^C:\PROJECTS\FINDANDUPDATEFILE\FINDANDUPDATEFILE\FILELIST.CPP
/c /ZI /nologo /W3 /WX- /sdl /Od /D _DEBUG /D _CONSOLE /D _UNICODE /D UNICODE /D _CRT_SECURE_NO_WARNINGS /Gm /EHsc /RTC1 /MDd /GS /fp:precise /Zc:wchar_t /Zc:forScope /Zc:inline /Yu"stdafx.h" /Fp"X64\DEBUG\FINDREPLACE.PCH" /Fo"X64\DEBUG\\" /Fd"X64\DEBUG\VC140.PDB" /Gd /TP C:\PROJECTS\FINDANDUPDATEFILE\FINDANDUPDATEFILE\FILELIST.CPP
^C:\PROJECTS\FINDANDUPDATEFILE\FINDANDUPDATEFILE\FILENAME.CPP
/c /ZI /nologo /W3 /WX- /sdl /Od /D _DEBUG /D _CONSOLE /D _UNICODE /D UNICODE /D _CRT_SECURE_NO_WARNINGS /Gm /EHsc /RTC1 /MDd /GS /fp:precise /Zc:wchar_t /Zc:forScope /Zc:inline /Yu"stdafx.h" /Fp"X64\DEBUG\FINDREPLACE.PCH" /Fo"X64\DEBUG\\" /Fd"X64\DEBUG\VC140.PDB" /Gd /TP C:\PROJECTS\FINDANDUPDATEFILE\FINDANDUPDATEFILE\FILENAME.CPP
^C:\PROJECTS\FINDANDUPDATEFILE\FINDANDUPDATEFILE\FINDANDUPDATEFILE.CPP
/c /ZI /nologo /W3 /WX- /sdl /Od /D _DEBUG /D _CONSOLE /D _UNICODE /D UNICODE /D _CRT_SECURE_NO_WARNINGS /Gm /EHsc /RTC1 /MDd /GS /fp:precise /Zc:wchar_t /Zc:forScope /Zc:inline /Yu"stdafx.h" /Fp"X64\DEBUG\FINDREPLACE.PCH" /Fo"X64\DEBUG\\" /Fd"X64\DEBUG\VC140.PDB" /Gd /TP C:\PROJECTS\FINDANDUPDATEFILE\FINDANDUPDATEFILE\FINDANDUPDATEFILE.CPP
^C:\PROJECTS\FINDANDUPDATEFILE\FINDANDUPDATEFILE\OBJLIST.CPP
/c /ZI /nologo /W3 /WX- /sdl /Od /D _DEBUG /D _CONSOLE /D _UNICODE /D UNICODE /D _CRT_SECURE_NO_WARNINGS /Gm /EHsc /RTC1 /MDd /GS /fp:precise /Zc:wchar_t /Zc:forScope /Zc:inline /Yu"stdafx.h" /Fp"X64\DEBUG\FINDREPLACE.PCH" /Fo"X64\DEBUG\\" /Fd"X64\DEBUG\VC140.PDB" /Gd /TP C:\PROJECTS\FINDANDUPDATEFILE\FINDANDUPDATEFILE\OBJLIST.CPP
^C:\PROJECTS\FINDANDUPDATEFILE\FINDANDUPDATEFILE\PATHLIST.CPP
/c /ZI /nologo /W3 /WX- /sdl /Od /D _DEBUG /D _CONSOLE /D _UNICODE /D UNICODE /D _CRT_SECURE_NO_WARNINGS /Gm /EHsc /RTC1 /MDd /GS /fp:precise /Zc:wchar_t /Zc:forScope /Zc:inline /Yu"stdafx.h" /Fp"X64\DEBUG\FINDREPLACE.PCH" /Fo"X64\DEBUG\\" /Fd"X64\DEBUG\VC140.PDB" /Gd /TP C:\PROJECTS\FINDANDUPDATEFILE\FINDANDUPDATEFILE\PATHLIST.CPP
^C:\PROJECTS\FINDANDUPDATEFILE\FINDANDUPDATEFILE\PATHNAME.CPP
/c /ZI /nologo /W3 /WX- /sdl /Od /D _DEBUG /D _CONSOLE /D _UNICODE /D UNICODE /D _CRT_SECURE_NO_WARNINGS /Gm /EHsc /RTC1 /MDd /GS /fp:precise /Zc:wchar_t /Zc:forScope /Zc:inline /Yu"stdafx.h" /Fp"X64\DEBUG\FINDREPLACE.PCH" /Fo"X64\DEBUG\\" /Fd"X64\DEBUG\VC140.PDB" /Gd /TP C:\PROJECTS\FINDANDUPDATEFILE\FINDANDUPDATEFILE\PATHNAME.CPP
^C:\PROJECTS\FINDANDUPDATEFILE\FINDANDUPDATEFILE\WSTRING.CPP
/c /ZI /nologo /W3 /WX- /sdl /Od /D _DEBUG /D _CONSOLE /D _UNICODE /D UNICODE /D _CRT_SECURE_NO_WARNINGS /Gm /EHsc /RTC1 /MDd /GS /fp:precise /Zc:wchar_t /Zc:forScope /Zc:inline /Yu"stdafx.h" /Fp"X64\DEBUG\FINDREPLACE.PCH" /Fo"X64\DEBUG\\" /Fd"X64\DEBUG\VC140.PDB" /Gd /TP C:\PROJECTS\FINDANDUPDATEFILE\FINDANDUPDATEFILE\WSTRING.CPP
^C:\PROJECTS\FINDANDUPDATEFILE\FINDANDUPDATEFILE\FILEPROCESSOR.CPP
/c /ZI /nologo /W3 /WX- /sdl /Od /D _DEBUG /D _CONSOLE /D _UNICODE /D UNICODE /D _CRT_SECURE_NO_WARNINGS /Gm /EHsc /RTC1 /MDd /GS /fp:precise /Zc:wchar_t /Zc:forScope /Zc:inline /Yu"stdafx.h" /Fp"X64\DEBUG\FINDREPLACE.PCH" /Fo"X64\DEBUG\\" /Fd"X64\DEBUG\VC140.PDB" /Gd /TP C:\PROJECTS\FINDANDUPDATEFILE\FINDANDUPDATEFILE\FILEPROCESSOR.CPP
^C:\PROJECTS\FINDANDUPDATEFILE\FINDANDUPDATEFILE\FILEPTR.CPP
/c /ZI /nologo /W3 /WX- /sdl /Od /D _DEBUG /D _CONSOLE /D _UNICODE /D UNICODE /D _CRT_SECURE_NO_WARNINGS /Gm /EHsc /RTC1 /MDd /GS /fp:precise /Zc:wchar_t /Zc:forScope /Zc:inline /Yu"stdafx.h" /Fp"X64\DEBUG\FINDREPLACE.PCH" /Fo"X64\DEBUG\\" /Fd"X64\DEBUG\VC140.PDB" /Gd /TP C:\PROJECTS\FINDANDUPDATEFILE\FINDANDUPDATEFILE\FILEPTR.CPP
^C:\PROJECTS\FINDANDUPDATEFILE\FINDANDUPDATEFILE\FILESMARTIO.CPP
/c /ZI /nologo /W3 /WX- /sdl /Od /D _DEBUG /D _CONSOLE /D _UNICODE /D UNICODE /D _CRT_SECURE_NO_WARNINGS /Gm /EHsc /RTC1 /MDd /GS /fp:precise /Zc:wchar_t /Zc:forScope /Zc:inline /Yu"stdafx.h" /Fp"X64\DEBUG\FINDREPLACE.PCH" /Fo"X64\DEBUG\\" /Fd"X64\DEBUG\VC140.PDB" /Gd /TP C:\PROJECTS\FINDANDUPDATEFILE\FINDANDUPDATEFILE\FILESMARTIO.CPP
^C:\PROJECTS\FINDANDUPDATEFILE\FINDANDUPDATEFILE\FILEPTRLIST.CPP
/c /ZI /nologo /W3 /WX- /sdl /Od /D _DEBUG /D _CONSOLE /D _UNICODE /D UNICODE /D _CRT_SECURE_NO_WARNINGS /Gm /EHsc /RTC1 /MDd /GS /fp:precise /Zc:wchar_t /Zc:forScope /Zc:inline /Yu"stdafx.h" /Fp"X64\DEBUG\FINDREPLACE.PCH" /Fo"X64\DEBUG\\" /Fd"X64\DEBUG\VC140.PDB" /Gd /TP C:\PROJECTS\FINDANDUPDATEFILE\FINDANDUPDATEFILE\FILEPTRLIST.CPP
^C:\PROJECTS\FINDANDUPDATEFILE\FINDANDUPDATEFILE\FLEXBUFFER.CPP
/c /ZI /nologo /W3 /WX- /sdl /Od /D _DEBUG /D _CONSOLE /D _UNICODE /D UNICODE /D _CRT_SECURE_NO_WARNINGS /Gm /EHsc /RTC1 /MDd /GS /fp:precise /Zc:wchar_t /Zc:forScope /Zc:inline /Yu"stdafx.h" /Fp"X64\DEBUG\FINDREPLACE.PCH" /Fo"X64\DEBUG\\" /Fd"X64\DEBUG\VC140.PDB" /Gd /TP C:\PROJECTS\FINDANDUPDATEFILE\FINDANDUPDATEFILE\FLEXBUFFER.CPP
^C:\PROJECTS\FINDANDUPDATEFILE\FINDANDUPDATEFILE\CONSOLEMGR.CPP
/c /ZI /nologo /W3 /WX- /sdl /Od /D _DEBUG /D _CONSOLE /D _UNICODE /D UNICODE /D _CRT_SECURE_NO_WARNINGS /Gm /EHsc /RTC1 /MDd /GS /fp:precise /Zc:wchar_t /Zc:forScope /Zc:inline /Yu"stdafx.h" /Fp"X64\DEBUG\FINDREPLACE.PCH" /Fo"X64\DEBUG\\" /Fd"X64\DEBUG\VC140.PDB" /Gd /TP C:\PROJECTS\FINDANDUPDATEFILE\FINDANDUPDATEFILE\CONSOLEMGR.CPP
^C:\PROJECTS\CMUTILITIES\FINDANDUPDATEFILE\FINDANDUPDATEFILE\STDAFX.CPP
/c /ZI /nologo /W3 /WX- /sdl /Od /D _DEBUG /D _CONSOLE /D _UNICODE /D UNICODE /D _CRT_SECURE_NO_WARNINGS /Gm /EHsc /RTC1 /MDd /GS /fp:precise /Zc:wchar_t /Zc:forScope /Zc:inline /Yc"stdafx.h" /Fp"X64\DEBUG\FINDREPLACE.PCH" /Fo"X64\DEBUG\\" /Fd"X64\DEBUG\VC140.PDB" /Gd /TP C:\PROJECTS\CMUTILITIES\FINDANDUPDATEFILE\FINDANDUPDATEFILE\STDAFX.CPP
^C:\PROJECTS\CMUTILITIES\FINDANDUPDATEFILE\FINDANDUPDATEFILE\CONSOLEMGR.CPP
/c /ZI /nologo /W3 /WX- /sdl /Od /D _DEBUG /D _CONSOLE /D _UNICODE /D UNICODE /D _CRT_SECURE_NO_WARNINGS /Gm /EHsc /RTC1 /MDd /GS /fp:precise /Zc:wchar_t /Zc:forScope /Zc:inline /Yu"stdafx.h" /Fp"X64\DEBUG\FINDREPLACE.PCH" /Fo"X64\DEBUG\\" /Fd"X64\DEBUG\VC140.PDB" /Gd /TP C:\PROJECTS\CMUTILITIES\FINDANDUPDATEFILE\FINDANDUPDATEFILE\CONSOLEMGR.CPP
^C:\PROJECTS\CMUTILITIES\FINDANDUPDATEFILE\FINDANDUPDATEFILE\FILELIST.CPP
/c /ZI /nologo /W3 /WX- /sdl /Od /D _DEBUG /D _CONSOLE /D _UNICODE /D UNICODE /D _CRT_SECURE_NO_WARNINGS /Gm /EHsc /RTC1 /MDd /GS /fp:precise /Zc:wchar_t /Zc:forScope /Zc:inline /Yu"stdafx.h" /Fp"X64\DEBUG\FINDREPLACE.PCH" /Fo"X64\DEBUG\\" /Fd"X64\DEBUG\VC140.PDB" /Gd /TP C:\PROJECTS\CMUTILITIES\FINDANDUPDATEFILE\FINDANDUPDATEFILE\FILELIST.CPP
^C:\PROJECTS\CMUTILITIES\FINDANDUPDATEFILE\FINDANDUPDATEFILE\FILENAME.CPP
/c /ZI /nologo /W3 /WX- /sdl /Od /D _DEBUG /D _CONSOLE /D _UNICODE /D UNICODE /D _CRT_SECURE_NO_WARNINGS /Gm /EHsc /RTC1 /MDd /GS /fp:precise /Zc:wchar_t /Zc:forScope /Zc:inline /Yu"stdafx.h" /Fp"X64\DEBUG\FINDREPLACE.PCH" /Fo"X64\DEBUG\\" /Fd"X64\DEBUG\VC140.PDB" /Gd /TP C:\PROJECTS\CMUTILITIES\FINDANDUPDATEFILE\FINDANDUPDATEFILE\FILENAME.CPP
^C:\PROJECTS\CMUTILITIES\FINDANDUPDATEFILE\FINDANDUPDATEFILE\FILEPROCESSOR.CPP
/c /ZI /nologo /W3 /WX- /sdl /Od /D _DEBUG /D _CONSOLE /D _UNICODE /D UNICODE /D _CRT_SECURE_NO_WARNINGS /Gm /EHsc /RTC1 /MDd /GS /fp:precise /Zc:wchar_t /Zc:forScope /Zc:inline /Yu"stdafx.h" /Fp"X64\DEBUG\FINDREPLACE.PCH" /Fo"X64\DEBUG\\" /Fd"X64\DEBUG\VC140.PDB" /Gd /TP C:\PROJECTS\CMUTILITIES\FINDANDUPDATEFILE\FINDANDUPDATEFILE\FILEPROCESSOR.CPP
^C:\PROJECTS\CMUTILITIES\FINDANDUPDATEFILE\FINDANDUPDATEFILE\FINDANDUPDATEFILE.CPP
/c /ZI /nologo /W3 /WX- /sdl /Od /D _DEBUG /D _CONSOLE /D _UNICODE /D UNICODE /D _CRT_SECURE_NO_WARNINGS /Gm /EHsc /RTC1 /MDd /GS /fp:precise /Zc:wchar_t /Zc:forScope /Zc:inline /Yu"stdafx.h" /Fp"X64\DEBUG\FINDREPLACE.PCH" /Fo"X64\DEBUG\\" /Fd"X64\DEBUG\VC140.PDB" /Gd /TP C:\PROJECTS\CMUTILITIES\FINDANDUPDATEFILE\FINDANDUPDATEFILE\FINDANDUPDATEFILE.CPP
^C:\PROJECTS\CMUTILITIES\FINDANDUPDATEFILE\FINDANDUPDATEFILE\FLEXBUFFER.CPP
/c /ZI /nologo /W3 /WX- /sdl /Od /D _DEBUG /D _CONSOLE /D _UNICODE /D UNICODE /D _CRT_SECURE_NO_WARNINGS /Gm /EHsc /RTC1 /MDd /GS /fp:precise /Zc:wchar_t /Zc:forScope /Zc:inline /Yu"stdafx.h" /Fp"X64\DEBUG\FINDREPLACE.PCH" /Fo"X64\DEBUG\\" /Fd"X64\DEBUG\VC140.PDB" /Gd /TP C:\PROJECTS\CMUTILITIES\FINDANDUPDATEFILE\FINDANDUPDATEFILE\FLEXBUFFER.CPP
^C:\PROJECTS\CMUTILITIES\FINDANDUPDATEFILE\FINDANDUPDATEFILE\OBJLIST.CPP
/c /ZI /nologo /W3 /WX- /sdl /Od /D _DEBUG /D _CONSOLE /D _UNICODE /D UNICODE /D _CRT_SECURE_NO_WARNINGS /Gm /EHsc /RTC1 /MDd /GS /fp:precise /Zc:wchar_t /Zc:forScope /Zc:inline /Yu"stdafx.h" /Fp"X64\DEBUG\FINDREPLACE.PCH" /Fo"X64\DEBUG\\" /Fd"X64\DEBUG\VC140.PDB" /Gd /TP C:\PROJECTS\CMUTILITIES\FINDANDUPDATEFILE\FINDANDUPDATEFILE\OBJLIST.CPP
^C:\PROJECTS\CMUTILITIES\FINDANDUPDATEFILE\FINDANDUPDATEFILE\PATHLIST.CPP
/c /ZI /nologo /W3 /WX- /sdl /Od /D _DEBUG /D _CONSOLE /D _UNICODE /D UNICODE /D _CRT_SECURE_NO_WARNINGS /Gm /EHsc /RTC1 /MDd /GS /fp:precise /Zc:wchar_t /Zc:forScope /Zc:inline /Yu"stdafx.h" /Fp"X64\DEBUG\FINDREPLACE.PCH" /Fo"X64\DEBUG\\" /Fd"X64\DEBUG\VC140.PDB" /Gd /TP C:\PROJECTS\CMUTILITIES\FINDANDUPDATEFILE\FINDANDUPDATEFILE\PATHLIST.CPP
^C:\PROJECTS\CMUTILITIES\FINDANDUPDATEFILE\FINDANDUPDATEFILE\PATHNAME.CPP
/c /ZI /nologo /W3 /WX- /sdl /Od /D _DEBUG /D _CONSOLE /D _UNICODE /D UNICODE /D _CRT_SECURE_NO_WARNINGS /Gm /EHsc /RTC1 /MDd /GS /fp:precise /Zc:wchar_t /Zc:forScope /Zc:inline /Yu"stdafx.h" /Fp"X64\DEBUG\FINDREPLACE.PCH" /Fo"X64\DEBUG\\" /Fd"X64\DEBUG\VC140.PDB" /Gd /TP C:\PROJECTS\CMUTILITIES\FINDANDUPDATEFILE\FINDANDUPDATEFILE\PATHNAME.CPP
^C:\PROJECTS\CMUTILITIES\FINDANDUPDATEFILE\FINDANDUPDATEFILE\WSTRING.CPP
/c /ZI /nologo /W3 /WX- /sdl /Od /D _DEBUG /D _CONSOLE /D _UNICODE /D UNICODE /D _CRT_SECURE_NO_WARNINGS /Gm /EHsc /RTC1 /MDd /GS /fp:precise /Zc:wchar_t /Zc:forScope /Zc:inline /Yu"stdafx.h" /Fp"X64\DEBUG\FINDREPLACE.PCH" /Fo"X64\DEBUG\\" /Fd"X64\DEBUG\VC140.PDB" /Gd /TP C:\PROJECTS\CMUTILITIES\FINDANDUPDATEFILE\FINDANDUPDATEFILE\WSTRING.CPP
^C:\PROJECTS\CMUTILITIES\FINDANDUPDATEFILE\FINDANDUPDATEFILE\GLOBALDATA.CPP
/c /ZI /nologo /W3 /WX- /sdl /Od /D _DEBUG /D _CONSOLE /D _UNICODE /D UNICODE /D _CRT_SECURE_NO_WARNINGS /Gm /EHsc /RTC1 /MDd /GS /fp:precise /Zc:wchar_t /Zc:forScope /Zc:inline /Yu"stdafx.h" /Fp"X64\DEBUG\FINDREPLACE.PCH" /Fo"X64\DEBUG\\" /Fd"X64\DEBUG\VC140.PDB" /Gd /TP C:\PROJECTS\CMUTILITIES\FINDANDUPDATEFILE\FINDANDUPDATEFILE\GLOBALDATA.CPP
